Recoding/Labeling Variables
…
    T.E.G. · 2018/03/24 · 2 minute read

    There are various ways of recoding and (re)labelling variables in R. But rec function from sjmisc package (Lüdecke 2018) works best for me. Give it a try:

library(tidyverse)
library(strengejacke)

mtcars %>% 
  select(disp, mpg, cyl) %>% 
  rec(cyl,rec= "4=1 [low]; 
                6=2 [mid]; 
                8=3 [high]") %>% 
  to_label(cyl_r)

## # A tibble: 32 x 4
##     disp   mpg   cyl cyl_r
##    <dbl> <dbl> <dbl> <fct>
##  1  160.  21.0    6. mid  
##  2  160.  21.0    6. mid  
##  3  108.  22.8    4. low  
##  4  258.  21.4    6. mid  
##  5  360.  18.7    8. high 
##  6  225.  18.1    6. mid  
##  7  360.  14.3    8. high 
##  8  147.  24.4    4. low  
##  9  141.  22.8    4. low  
## 10  168.  19.2    6. mid  
## # ... with 22 more rows

There are other useful functions to transform and recode variables. For example:

library(tidyverse)
library(strengejacke)

mtcars %>% 
  select(disp, mpg, cyl) %>% 
  rec(cyl,rec= "4=1 [low]; 
                6=2 [mid]; 
                8=3 [high]") %>% 
  split_var(disp, n=4) %>% #splitting variable into n equal sized groups
  dicho(mpg, dich.by = "mean") # dichotomize variable based on a criterion 

## # A tibble: 32 x 6
##     disp   mpg   cyl cyl_r disp_g mpg_d
##    <dbl> <dbl> <dbl> <dbl> <fct>  <fct>
##  1  160.  21.0    6.    2. 2      1    
##  2  160.  21.0    6.    2. 2      1    
##  3  108.  22.8    4.    1. 1      1    
##  4  258.  21.4    6.    2. 3      1    
##  5  360.  18.7    8.    3. 4      0    
##  6  225.  18.1    6.    2. 3      0    
##  7  360.  14.3    8.    3. 4      0    
##  8  147.  24.4    4.    1. 2      1    
##  9  141.  22.8    4.    1. 2      1    
## 10  168.  19.2    6.    2. 2      0    
## # ... with 22 more rows
…
